%YAML 1.1
%TAG !u! tag:unity3d.com,2011:
--- !u!114 &11400000
MonoBehaviour:
  m_ObjectHideFlags: 0
  m_CorrespondingSourceObject: {fileID: 0}
  m_PrefabInstance: {fileID: 0}
  m_PrefabAsset: {fileID: 0}
  m_GameObject: {fileID: 0}
  m_Enabled: 1
  m_EditorHideFlags: 0
  m_Script: {fileID: 11500000, guid: 8c6af3c81ecd4024fa73b807ac49cf61, type: 3}
  m_Name: Quest16
  m_EditorClassIdentifier: 
  QuestID: 16
  QuestNameTextKey: QUEST16_NAME
  QuestDescriptionTextKey: QUEST16_DESCRIPTION
  QuestShortDescriptionTextKey: QUEST16_SHORT
  QuestType: 0
  QuestConditions:
    previousQuest: 0100000002000000030000000400000005000000060000000700000008000000090000000a0000000b000000
    RequiredLevel: 1
  QuestReward:
    MoneyReward: 50
    ExperienceReward: 100
    ItemRewards: []
  EnemyAmount: []
  ActivateNpcID: []
  ActivateZoneID:
  - ID: 10
    Name: Lake
  Actions: []
