%YAML 1.1
%TAG !u! tag:unity3d.com,2011:
--- !u!114 &11400000
MonoBehaviour:
  m_ObjectHideFlags: 0
  m_CorrespondingSourceObject: {fileID: 0}
  m_PrefabInstance: {fileID: 0}
  m_PrefabAsset: {fileID: 0}
  m_GameObject: {fileID: 0}
  m_Enabled: 1
  m_EditorHideFlags: 0
  m_Script: {fileID: 11500000, guid: 8c6af3c81ecd4024fa73b807ac49cf61, type: 3}
  m_Name: LTB10
  m_EditorClassIdentifier: 
  QuestID: 10
  QuestNameTextKey: LTB10_NAME
  QuestDescriptionTextKey: LTB10_DESCRIPTION
  QuestShortDescriptionTextKey: LTB10_SHORT
  QuestType: 0
  QuestConditions:
    previousQuest: 010000000200000003000000040000000500000006000000070000000800000009000000
    RequiredLevel: 1
  QuestReward:
    MoneyReward: 100
    ExperienceReward: 100
    ItemRewards:
    - Item: 6
      ItemNumber: 1
  EnemyAmount: []
  ActivateNpcID: []
  ActivateZoneID: []
  Actions:
  - ID: 20
    Name: Stealth
