%YAML 1.1
%TAG !u! tag:unity3d.com,2011:
--- !u!114 &11400000
MonoBehaviour:
  m_ObjectHideFlags: 0
  m_CorrespondingSourceObject: {fileID: 0}
  m_PrefabInstance: {fileID: 0}
  m_PrefabAsset: {fileID: 0}
  m_GameObject: {fileID: 0}
  m_Enabled: 1
  m_EditorHideFlags: 0
  m_Script: {fileID: 11500000, guid: 8c6af3c81ecd4024fa73b807ac49cf61, type: 3}
  m_Name: LTB7
  m_EditorClassIdentifier: 
  QuestID: 7
  QuestNameTextKey: LTB7_NAME
  QuestDescriptionTextKey: LTB7_DESCRIPTION
  QuestShortDescriptionTextKey: LTB7_SHORT
  QuestType: 0
  QuestConditions:
    previousQuest: 010000000200000003000000040000000500000006000000
    RequiredLevel: 1
  QuestReward:
    MoneyReward: 70
    ExperienceReward: 70
    ItemRewards: []
  EnemyAmount: []
  ActivateNpcID: []
  ActivateZoneID: []
  Actions:
  - ID: 18
    Name: Slow Attack
