%YAML 1.1
%TAG !u! tag:unity3d.com,2011:
--- !u!114 &11400000
MonoBehaviour:
  m_ObjectHideFlags: 0
  m_CorrespondingSourceObject: {fileID: 0}
  m_PrefabInstance: {fileID: 0}
  m_PrefabAsset: {fileID: 0}
  m_GameObject: {fileID: 0}
  m_Enabled: 1
  m_EditorHideFlags: 0
  m_Script: {fileID: 11500000, guid: 807594905a489a6459c38f2daf885d6b, type: 3}
  m_Name: AC12
  m_EditorClassIdentifier: 
  AchievementID: 12
  AchievementNameTextKey: AC12_NAME
  AchievementDescriptionTextKey: AC12_DESCRIPTION
  AchievementImage: {fileID: 21300000, guid: 6d9d0551823153f4cac6c4bc764556ae, type: 3}
  EnemyAmount: []
  DeathAmount: []
  ObjectAmount: []
  ItemAmount: []
  ActivateNpcID: []
  ActivateZoneID:
  - ID: 1
    Name: "Caba\xF1a"
  - ID: 2
    Name: Castillo
  - ID: 3
    Name: Ruinas
  - ID: 4
    Name: Pueblo
  - ID: 5
    Name: Ciudad
