%YAML 1.1
%TAG !u! tag:unity3d.com,2011:
--- !u!114 &11400000
MonoBehaviour:
  m_ObjectHideFlags: 0
  m_CorrespondingSourceObject: {fileID: 0}
  m_PrefabInstance: {fileID: 0}
  m_PrefabAsset: {fileID: 0}
  m_GameObject: {fileID: 0}
  m_Enabled: 1
  m_EditorHideFlags: 0
  m_Script: {fileID: 11500000, guid: 807594905a489a6459c38f2daf885d6b, type: 3}
  m_Name: AC14
  m_EditorClassIdentifier: 
  AchievementID: 14
  AchievementNameTextKey: AC14_NAME
  AchievementDescriptionTextKey: AC14_DESCRIPTION
  AchievementImage: {fileID: 21300000, guid: 7c150255212863a46851e14d3a58e52a, type: 3}
  EnemyAmount: []
  DeathAmount: []
  StatAmount: []
  ItemAmount: []
  ActivateNpcID: []
  ActivateZoneID: []
  Interactions:
  - ID: 4
    Name: BonfireRuins
  - ID: 6
    Name: BonfirePueblo
  - ID: 7
    Name: BonfireCity
  - ID: 8
    Name: "BonfireCaba\xF1a"
  - ID: 9
    Name: BonfireCastle
