%YAML 1.1
%TAG !u! tag:unity3d.com,2011:
--- !u!114 &11400000
MonoBehaviour:
  m_ObjectHideFlags: 0
  m_CorrespondingSourceObject: {fileID: 0}
  m_PrefabInstance: {fileID: 0}
  m_PrefabAsset: {fileID: 0}
  m_GameObject: {fileID: 0}
  m_Enabled: 1
  m_EditorHideFlags: 0
  m_Script: {fileID: 11500000, guid: 807594905a489a6459c38f2daf885d6b, type: 3}
  m_Name: AC3
  m_EditorClassIdentifier: 
  AchievementID: 3
  AchievementNameTextKey: AC3_NAME
  AchievementDescriptionTextKey: AC3_DESCRIPTION
  AchievementImage: {fileID: 21300000, guid: 6b8c07c93d4fb6848aa7df26001fddd3, type: 3}
  EnemyAmount: []
  DeathAmount:
  - ID: 1
    Name: Bandit
    RequiredAmount: 1
  ObjectAmount: []
  ItemAmount: []
  ActivateNpcID: []
  ActivateZoneID: []
