%YAML 1.1
%TAG !u! tag:unity3d.com,2011:
--- !u!114 &11400000
MonoBehaviour:
  m_ObjectHideFlags: 0
  m_CorrespondingSourceObject: {fileID: 0}
  m_PrefabInstance: {fileID: 0}
  m_PrefabAsset: {fileID: 0}
  m_GameObject: {fileID: 0}
  m_Enabled: 1
  m_EditorHideFlags: 0
  m_Script: {fileID: 11500000, guid: 807594905a489a6459c38f2daf885d6b, type: 3}
  m_Name: AC9
  m_EditorClassIdentifier: 
  AchievementID: 9
  AchievementNameTextKey: AC9_NAME
  AchievementDescriptionTextKey: AC9_DESCRIPTION
  AchievementImage: {fileID: 21300000, guid: e4b4ee2d3dbfde049a36ad7b59dbc95b, type: 3}
  EnemyAmount:
  - ID: 2
    Name: Knight
    RequiredAmount: 1
  DeathAmount: []
  ObjectAmount: []
  ItemAmount: []
  ActivateNpcID: []
  ActivateZoneID: []
