%YAML 1.1
%TAG !u! tag:unity3d.com,2011:
--- !u!114 &11400000
MonoBehaviour:
  m_ObjectHideFlags: 0
  m_CorrespondingSourceObject: {fileID: 0}
  m_PrefabInstance: {fileID: 0}
  m_PrefabAsset: {fileID: 0}
  m_GameObject: {fileID: 0}
  m_Enabled: 1
  m_EditorHideFlags: 0
  m_Script: {fileID: 11500000, guid: 92dc9288aa8129644b29990053aa232c, type: 3}
  m_Name: Albert
  m_EditorClassIdentifier: 
  ID: 3
  NameKey: TOWN_ALBERT
  DialoguePortrait: {fileID: 21300000, guid: ad8ba3e0c43f66142b7efd18ac637287, type: 3}
