%YAML 1.1
%TAG !u! tag:unity3d.com,2011:
--- !u!65 &1795928219
BoxCollider:
  m_ObjectHideFlags: 0
  m_CorrespondingSourceObject: {fileID: 0}
  m_PrefabInstance: {fileID: 0}
  m_PrefabAsset: {fileID: 0}
  m_GameObject: {fileID: 5424619722887467011}
  m_Material: {fileID: 0}
  m_IsTrigger: 0
  m_Enabled: 1
  serializedVersion: 2
  m_Size: {x: 0.068879046, y: 0.08414253, z: 0.077129945}
  m_Center: {x: -0.027954537, y: 0.027084917, z: 0.009052888}
--- !u!1001 &5424619722887435939
PrefabInstance:
  m_ObjectHideFlags: 0
  serializedVersion: 2
  m_Modification:
    m_TransformParent: {fileID: 0}
    m_Modifications:
    - target: {fileID: 100000, guid: 5f185b06eae419341b5b18faf2d38ef8, type: 3}
      propertyPath: m_Name
      value: CasaMed1
      objectReference: {fileID: 0}
    - target: {fileID: 400000, guid: 5f185b06eae419341b5b18faf2d38ef8, type: 3}
      propertyPath: m_LocalPosition.x
      value: 200.3667
      objectReference: {fileID: 0}
    - target: {fileID: 400000, guid: 5f185b06eae419341b5b18faf2d38ef8, type: 3}
      propertyPath: m_LocalPosition.y
      value: 2.0658467
      objectReference: {fileID: 0}
    - target: {fileID: 400000, guid: 5f185b06eae419341b5b18faf2d38ef8, type: 3}
      propertyPath: m_LocalPosition.z
      value: 46.71297
      objectReference: {fileID: 0}
    - target: {fileID: 400000, guid: 5f185b06eae419341b5b18faf2d38ef8, type: 3}
      propertyPath: m_LocalRotation.x
      value: -0.7071068
      objectReference: {fileID: 0}
    - target: {fileID: 400000, guid: 5f185b06eae419341b5b18faf2d38ef8, type: 3}
      propertyPath: m_LocalRotation.y
      value: 0
      objectReference: {fileID: 0}
    - target: {fileID: 400000, guid: 5f185b06eae419341b5b18faf2d38ef8, type: 3}
      propertyPath: m_LocalRotation.z
      value: -0
      objectReference: {fileID: 0}
    - target: {fileID: 400000, guid: 5f185b06eae419341b5b18faf2d38ef8, type: 3}
      propertyPath: m_LocalRotation.w
      value: 0.7071067
      objectReference: {fileID: 0}
    - target: {fileID: 400000, guid: 5f185b06eae419341b5b18faf2d38ef8, type: 3}
      propertyPath: m_RootOrder
      value: 0
      objectReference: {fileID: 0}
    - target: {fileID: 400000, guid: 5f185b06eae419341b5b18faf2d38ef8, type: 3}
      propertyPath: m_LocalEulerAnglesHint.x
      value: 0
      objectReference: {fileID: 0}
    - target: {fileID: 400000, guid: 5f185b06eae419341b5b18faf2d38ef8, type: 3}
      propertyPath: m_LocalEulerAnglesHint.y
      value: 0
      objectReference: {fileID: 0}
    - target: {fileID: 400000, guid: 5f185b06eae419341b5b18faf2d38ef8, type: 3}
      propertyPath: m_LocalEulerAnglesHint.z
      value: 0
      objectReference: {fileID: 0}
    m_RemovedComponents: []
  m_SourcePrefab: {fileID: 100100000, guid: 5f185b06eae419341b5b18faf2d38ef8, type: 3}
--- !u!1 &5424619722887467011 stripped
GameObject:
  m_CorrespondingSourceObject: {fileID: 100000, guid: 5f185b06eae419341b5b18faf2d38ef8,
    type: 3}
  m_PrefabInstance: {fileID: 5424619722887435939}
  m_PrefabAsset: {fileID: 0}
