%YAML 1.1
%TAG !u! tag:unity3d.com,2011:
--- !u!114 &11400000
MonoBehaviour:
  m_ObjectHideFlags: 0
  m_CorrespondingSourceObject: {fileID: 0}
  m_PrefabInstance: {fileID: 0}
  m_PrefabAsset: {fileID: 0}
  m_GameObject: {fileID: 0}
  m_Enabled: 1
  m_EditorHideFlags: 0
  m_Script: {fileID: 11500000, guid: 33ac746ee9e06a844b7deafe8bb0abe7, type: 3}
  m_Name: Woman
  m_EditorClassIdentifier: 
  ID: 1
  NameKey: 
  Stats:
    Health: 100
    Stamina: 20
    Attack: 20
    Defense: 30
    WalkingSpeed: 5
    RunningSpeed: 10
    CriticalChance: 0.1
    CriticalDamage: 15
  StatsProgression:
    XP_Increment: 2
    Attack_Increment: 2
    Health_Increment: 2
    Defense_Increment: 2
    Stamina_Increment: 2
    XP_Adjustment_Value: 5
    Health_Adjustment_Value: 0.6
    Attack_Adjustment_Value: 0.6
    Defense_Adjustment_Value: 0.6
    Stamina_Adjustment_Value: 0.6
  GamePrefab: Assets/Prefabs/Character/WomanCharacterWithSword.prefab
  Icon: {fileID: 21300000, guid: 82d1958922577b447891a19ee3db945a, type: 3}
  Portrait: {fileID: 21300000, guid: 2b3e6fa5c443d31498b731a70ea6f505, type: 3}
