%YAML 1.1
%TAG !u! tag:unity3d.com,2011:
--- !u!114 &11400000
MonoBehaviour:
  m_ObjectHideFlags: 0
  m_CorrespondingSourceObject: {fileID: 0}
  m_PrefabInstance: {fileID: 0}
  m_PrefabAsset: {fileID: 0}
  m_GameObject: {fileID: 0}
  m_Enabled: 1
  m_EditorHideFlags: 0
  m_Script: {fileID: 11500000, guid: f0c6e93f1b7152a4eada330d03237f39, type: 3}
  m_Name: Shop
  m_EditorClassIdentifier: 
  ShopName: SHOP_NAME
  ItemSets:
  - ID: 0
    Unlocked: 1
    Set:
    - Item: {fileID: 11400000, guid: f7bb86f508572774387e640fce651a7f, type: 2}
      Quantity: 99
    - Item: {fileID: 11400000, guid: 1bcada112af964c4180f47c130c92025, type: 2}
      Quantity: 99
    - Item: {fileID: 11400000, guid: d1f7acf7822db3c41bb71d5e203ba3b1, type: 2}
      Quantity: 99
    - Item: {fileID: 11400000, guid: 80e712f7ab138274a92c81098ed186b6, type: 2}
      Quantity: 99
    - Item: {fileID: 11400000, guid: 6026c50360040084d855012c495e14e8, type: 2}
      Quantity: 99
    - Item: {fileID: 11400000, guid: 4798dbb514f639845b494894e7da1183, type: 2}
      Quantity: 10
