%YAML 1.1
%TAG !u! tag:unity3d.com,2011:
--- !u!29 &1
OcclusionCullingSettings:
  m_ObjectHideFlags: 0
  serializedVersion: 2
  m_OcclusionBakeSettings:
    smallestOccluder: 5
    smallestHole: 0.25
    backfaceThreshold: 100
  m_SceneGUID: 00000000000000000000000000000000
  m_OcclusionCullingData: {fileID: 0}
--- !u!104 &2
RenderSettings:
  m_ObjectHideFlags: 0
  serializedVersion: 9
  m_Fog: 0
  m_FogColor: {r: 0.5, g: 0.5, b: 0.5, a: 1}
  m_FogMode: 3
  m_FogDensity: 0.01
  m_LinearFogStart: 0
  m_LinearFogEnd: 300
  m_AmbientSkyColor: {r: 0.212, g: 0.227, b: 0.259, a: 1}
  m_AmbientEquatorColor: {r: 0.114, g: 0.125, b: 0.133, a: 1}
  m_AmbientGroundColor: {r: 0.047, g: 0.043, b: 0.035, a: 1}
  m_AmbientIntensity: 1
  m_AmbientMode: 0
  m_SubtractiveShadowColor: {r: 0.42, g: 0.478, b: 0.627, a: 1}
  m_SkyboxMaterial: {fileID: 10304, guid: 0000000000000000f000000000000000, type: 0}
  m_HaloStrength: 0.5
  m_FlareStrength: 1
  m_FlareFadeSpeed: 3
  m_HaloTexture: {fileID: 0}
  m_SpotCookie: {fileID: 10001, guid: 0000000000000000e000000000000000, type: 0}
  m_DefaultReflectionMode: 0
  m_DefaultReflectionResolution: 128
  m_ReflectionBounces: 1
  m_ReflectionIntensity: 1
  m_CustomReflection: {fileID: 0}
  m_Sun: {fileID: 0}
  m_IndirectSpecularColor: {r: 0.4465782, g: 0.49641252, b: 0.5748167, a: 1}
  m_UseRadianceAmbientProbe: 0
--- !u!157 &3
LightmapSettings:
  m_ObjectHideFlags: 0
  serializedVersion: 11
  m_GIWorkflowMode: 0
  m_GISettings:
    serializedVersion: 2
    m_BounceScale: 1
    m_IndirectOutputScale: 1
    m_AlbedoBoost: 1
    m_EnvironmentLightingMode: 0
    m_EnableBakedLightmaps: 1
    m_EnableRealtimeLightmaps: 1
  m_LightmapEditorSettings:
    serializedVersion: 10
    m_Resolution: 2
    m_BakeResolution: 40
    m_AtlasSize: 1024
    m_AO: 0
    m_AOMaxDistance: 1
    m_CompAOExponent: 1
    m_CompAOExponentDirect: 0
    m_Padding: 2
    m_LightmapParameters: {fileID: 0}
    m_LightmapsBakeMode: 1
    m_TextureCompression: 1
    m_FinalGather: 0
    m_FinalGatherFiltering: 1
    m_FinalGatherRayCount: 256
    m_ReflectionCompression: 2
    m_MixedBakeMode: 2
    m_BakeBackend: 1
    m_PVRSampling: 1
    m_PVRDirectSampleCount: 32
    m_PVRSampleCount: 500
    m_PVRBounces: 2
    m_PVRFilterTypeDirect: 0
    m_PVRFilterTypeIndirect: 0
    m_PVRFilterTypeAO: 0
    m_PVRFilteringMode: 1
    m_PVRCulling: 1
    m_PVRFilteringGaussRadiusDirect: 1
    m_PVRFilteringGaussRadiusIndirect: 5
    m_PVRFilteringGaussRadiusAO: 2
    m_PVRFilteringAtrousPositionSigmaDirect: 0.5
    m_PVRFilteringAtrousPositionSigmaIndirect: 2
    m_PVRFilteringAtrousPositionSigmaAO: 1
    m_ShowResolutionOverlay: 1
  m_LightingDataAsset: {fileID: 0}
  m_UseShadowmask: 1
--- !u!196 &4
NavMeshSettings:
  serializedVersion: 2
  m_ObjectHideFlags: 0
  m_BuildSettings:
    serializedVersion: 2
    agentTypeID: 0
    agentRadius: 0.5
    agentHeight: 2
    agentSlope: 45
    agentClimb: 0.4
    ledgeDropHeight: 0
    maxJumpAcrossDistance: 0
    minRegionArea: 2
    manualCellSize: 0
    cellSize: 0.16666667
    manualTileSize: 0
    tileSize: 256
    accuratePlacement: 0
    debug:
      m_Flags: 0
  m_NavMeshData: {fileID: 0}
--- !u!1 &294805268
GameObject:
  m_ObjectHideFlags: 0
  m_CorrespondingSourceObject: {fileID: 0}
  m_PrefabInstance: {fileID: 0}
  m_PrefabAsset: {fileID: 0}
  serializedVersion: 6
  m_Component:
  - component: {fileID: 294805270}
  - component: {fileID: 294805269}
  m_Layer: 0
  m_Name: Directional Light
  m_TagString: Untagged
  m_Icon: {fileID: 0}
  m_NavMeshLayer: 0
  m_StaticEditorFlags: 0
  m_IsActive: 1
--- !u!108 &294805269
Light:
  m_ObjectHideFlags: 0
  m_CorrespondingSourceObject: {fileID: 0}
  m_PrefabInstance: {fileID: 0}
  m_PrefabAsset: {fileID: 0}
  m_GameObject: {fileID: 294805268}
  m_Enabled: 1
  serializedVersion: 8
  m_Type: 1
  m_Color: {r: 1, g: 0.95686275, b: 0.8392157, a: 1}
  m_Intensity: 1
  m_Range: 10
  m_SpotAngle: 30
  m_CookieSize: 10
  m_Shadows:
    m_Type: 2
    m_Resolution: -1
    m_CustomResolution: -1
    m_Strength: 1
    m_Bias: 0.05
    m_NormalBias: 0.4
    m_NearPlane: 0.2
  m_Cookie: {fileID: 0}
  m_DrawHalo: 0
  m_Flare: {fileID: 0}
  m_RenderMode: 0
  m_CullingMask:
    serializedVersion: 2
    m_Bits: 4294967295
  m_Lightmapping: 4
  m_LightShadowCasterMode: 0
  m_AreaSize: {x: 1, y: 1}
  m_BounceIntensity: 1
  m_ColorTemperature: 6570
  m_UseColorTemperature: 0
  m_ShadowRadius: 0
  m_ShadowAngle: 0
--- !u!4 &294805270
Transform:
  m_ObjectHideFlags: 0
  m_CorrespondingSourceObject: {fileID: 0}
  m_PrefabInstance: {fileID: 0}
  m_PrefabAsset: {fileID: 0}
  m_GameObject: {fileID: 294805268}
  m_LocalRotation: {x: 0.40821788, y: -0.23456968, z: 0.10938163, w: 0.8754261}
  m_LocalPosition: {x: 0, y: 3, z: 0}
  m_LocalScale: {x: 1, y: 1, z: 1}
  m_Children: []
  m_Father: {fileID: 0}
  m_RootOrder: 6
  m_LocalEulerAnglesHint: {x: 50, y: -30, z: 0}
--- !u!1001 &577603372
PrefabInstance:
  m_ObjectHideFlags: 0
  serializedVersion: 2
  m_Modification:
    m_TransformParent: {fileID: 0}
    m_Modifications:
    - target: {fileID: 3204243895790220987, guid: 9da5a4f2e1990424b9d7f3af966760a6,
        type: 3}
      propertyPath: m_LocalPosition.x
      value: -273.23
      objectReference: {fileID: 0}
    - target: {fileID: 3204243895790220987, guid: 9da5a4f2e1990424b9d7f3af966760a6,
        type: 3}
      propertyPath: m_LocalPosition.y
      value: 371.4319
      objectReference: {fileID: 0}
    - target: {fileID: 3204243895790220987, guid: 9da5a4f2e1990424b9d7f3af966760a6,
        type: 3}
      propertyPath: m_LocalPosition.z
      value: 612.3
      objectReference: {fileID: 0}
    - target: {fileID: 3204243895790220987, guid: 9da5a4f2e1990424b9d7f3af966760a6,
        type: 3}
      propertyPath: m_LocalRotation.x
      value: 0.00000005782282
      objectReference: {fileID: 0}
    - target: {fileID: 3204243895790220987, guid: 9da5a4f2e1990424b9d7f3af966760a6,
        type: 3}
      propertyPath: m_LocalRotation.y
      value: -0.7043752
      objectReference: {fileID: 0}
    - target: {fileID: 3204243895790220987, guid: 9da5a4f2e1990424b9d7f3af966760a6,
        type: 3}
      propertyPath: m_LocalRotation.z
      value: -0.000000057378646
      objectReference: {fileID: 0}
    - target: {fileID: 3204243895790220987, guid: 9da5a4f2e1990424b9d7f3af966760a6,
        type: 3}
      propertyPath: m_LocalRotation.w
      value: 0.7098279
      objectReference: {fileID: 0}
    - target: {fileID: 3204243895790220987, guid: 9da5a4f2e1990424b9d7f3af966760a6,
        type: 3}
      propertyPath: m_RootOrder
      value: 2
      objectReference: {fileID: 0}
    - target: {fileID: 3204243895790220987, guid: 9da5a4f2e1990424b9d7f3af966760a6,
        type: 3}
      propertyPath: m_LocalEulerAnglesHint.x
      value: 0
      objectReference: {fileID: 0}
    - target: {fileID: 3204243895790220987, guid: 9da5a4f2e1990424b9d7f3af966760a6,
        type: 3}
      propertyPath: m_LocalEulerAnglesHint.y
      value: -89.55801
      objectReference: {fileID: 0}
    - target: {fileID: 3204243895790220987, guid: 9da5a4f2e1990424b9d7f3af966760a6,
        type: 3}
      propertyPath: m_LocalEulerAnglesHint.z
      value: 0
      objectReference: {fileID: 0}
    - target: {fileID: 3204243895790447259, guid: 9da5a4f2e1990424b9d7f3af966760a6,
        type: 3}
      propertyPath: m_Name
      value: RampaTarima
      objectReference: {fileID: 0}
    m_RemovedComponents: []
  m_SourcePrefab: {fileID: 100100000, guid: 9da5a4f2e1990424b9d7f3af966760a6, type: 3}
--- !u!1001 &741575906
PrefabInstance:
  m_ObjectHideFlags: 0
  serializedVersion: 2
  m_Modification:
    m_TransformParent: {fileID: 0}
    m_Modifications:
    - target: {fileID: 93212940434418021, guid: 4d18162c66ae1fd4aa7de73d4349b84b,
        type: 3}
      propertyPath: m_Name
      value: WoodenCabinFbx
      objectReference: {fileID: 0}
    - target: {fileID: 93212940434912581, guid: 4d18162c66ae1fd4aa7de73d4349b84b,
        type: 3}
      propertyPath: m_LocalPosition.x
      value: -237.51682
      objectReference: {fileID: 0}
    - target: {fileID: 93212940434912581, guid: 4d18162c66ae1fd4aa7de73d4349b84b,
        type: 3}
      propertyPath: m_LocalPosition.y
      value: 371.4319
      objectReference: {fileID: 0}
    - target: {fileID: 93212940434912581, guid: 4d18162c66ae1fd4aa7de73d4349b84b,
        type: 3}
      propertyPath: m_LocalPosition.z
      value: 611.00366
      objectReference: {fileID: 0}
    - target: {fileID: 93212940434912581, guid: 4d18162c66ae1fd4aa7de73d4349b84b,
        type: 3}
      propertyPath: m_LocalRotation.x
      value: -0
      objectReference: {fileID: 0}
    - target: {fileID: 93212940434912581, guid: 4d18162c66ae1fd4aa7de73d4349b84b,
        type: 3}
      propertyPath: m_LocalRotation.y
      value: -0.7015841
      objectReference: {fileID: 0}
    - target: {fileID: 93212940434912581, guid: 4d18162c66ae1fd4aa7de73d4349b84b,
        type: 3}
      propertyPath: m_LocalRotation.z
      value: -0
      objectReference: {fileID: 0}
    - target: {fileID: 93212940434912581, guid: 4d18162c66ae1fd4aa7de73d4349b84b,
        type: 3}
      propertyPath: m_LocalRotation.w
      value: 0.7125867
      objectReference: {fileID: 0}
    - target: {fileID: 93212940434912581, guid: 4d18162c66ae1fd4aa7de73d4349b84b,
        type: 3}
      propertyPath: m_RootOrder
      value: 4
      objectReference: {fileID: 0}
    - target: {fileID: 93212940434912581, guid: 4d18162c66ae1fd4aa7de73d4349b84b,
        type: 3}
      propertyPath: m_LocalEulerAnglesHint.x
      value: 0
      objectReference: {fileID: 0}
    - target: {fileID: 93212940434912581, guid: 4d18162c66ae1fd4aa7de73d4349b84b,
        type: 3}
      propertyPath: m_LocalEulerAnglesHint.y
      value: -89.108
      objectReference: {fileID: 0}
    - target: {fileID: 93212940434912581, guid: 4d18162c66ae1fd4aa7de73d4349b84b,
        type: 3}
      propertyPath: m_LocalEulerAnglesHint.z
      value: 0
      objectReference: {fileID: 0}
    m_RemovedComponents: []
  m_SourcePrefab: {fileID: 100100000, guid: 4d18162c66ae1fd4aa7de73d4349b84b, type: 3}
--- !u!1001 &777608659
PrefabInstance:
  m_ObjectHideFlags: 0
  serializedVersion: 2
  m_Modification:
    m_TransformParent: {fileID: 0}
    m_Modifications:
    - target: {fileID: 2638936120551923787, guid: e9d62af914aa018479352e1ff302e856,
        type: 3}
      propertyPath: m_Name
      value: Terrain
      objectReference: {fileID: 0}
    - target: {fileID: 2638936120551923798, guid: e9d62af914aa018479352e1ff302e856,
        type: 3}
      propertyPath: m_LocalPosition.x
      value: -539.8155
      objectReference: {fileID: 0}
    - target: {fileID: 2638936120551923798, guid: e9d62af914aa018479352e1ff302e856,
        type: 3}
      propertyPath: m_LocalPosition.y
      value: 371.4319
      objectReference: {fileID: 0}
    - target: {fileID: 2638936120551923798, guid: e9d62af914aa018479352e1ff302e856,
        type: 3}
      propertyPath: m_LocalPosition.z
      value: 279.73077
      objectReference: {fileID: 0}
    - target: {fileID: 2638936120551923798, guid: e9d62af914aa018479352e1ff302e856,
        type: 3}
      propertyPath: m_LocalRotation.x
      value: -0
      objectReference: {fileID: 0}
    - target: {fileID: 2638936120551923798, guid: e9d62af914aa018479352e1ff302e856,
        type: 3}
      propertyPath: m_LocalRotation.y
      value: -0
      objectReference: {fileID: 0}
    - target: {fileID: 2638936120551923798, guid: e9d62af914aa018479352e1ff302e856,
        type: 3}
      propertyPath: m_LocalRotation.z
      value: -0
      objectReference: {fileID: 0}
    - target: {fileID: 2638936120551923798, guid: e9d62af914aa018479352e1ff302e856,
        type: 3}
      propertyPath: m_LocalRotation.w
      value: 1
      objectReference: {fileID: 0}
    - target: {fileID: 2638936120551923798, guid: e9d62af914aa018479352e1ff302e856,
        type: 3}
      propertyPath: m_RootOrder
      value: 5
      objectReference: {fileID: 0}
    - target: {fileID: 2638936120551923798, guid: e9d62af914aa018479352e1ff302e856,
        type: 3}
      propertyPath: m_LocalEulerAnglesHint.x
      value: 0
      objectReference: {fileID: 0}
    - target: {fileID: 2638936120551923798, guid: e9d62af914aa018479352e1ff302e856,
        type: 3}
      propertyPath: m_LocalEulerAnglesHint.y
      value: 0
      objectReference: {fileID: 0}
    - target: {fileID: 2638936120551923798, guid: e9d62af914aa018479352e1ff302e856,
        type: 3}
      propertyPath: m_LocalEulerAnglesHint.z
      value: 0
      objectReference: {fileID: 0}
    m_RemovedComponents: []
  m_SourcePrefab: {fileID: 100100000, guid: e9d62af914aa018479352e1ff302e856, type: 3}
--- !u!1001 &1476991287
PrefabInstance:
  m_ObjectHideFlags: 0
  serializedVersion: 2
  m_Modification:
    m_TransformParent: {fileID: 0}
    m_Modifications:
    - target: {fileID: 3377126160396867467, guid: 08eb30fd7f2748141b2a934a5277a6c2,
        type: 3}
      propertyPath: m_Name
      value: Tarima
      objectReference: {fileID: 0}
    - target: {fileID: 3377126160397093803, guid: 08eb30fd7f2748141b2a934a5277a6c2,
        type: 3}
      propertyPath: m_LocalPosition.x
      value: -295.03885
      objectReference: {fileID: 0}
    - target: {fileID: 3377126160397093803, guid: 08eb30fd7f2748141b2a934a5277a6c2,
        type: 3}
      propertyPath: m_LocalPosition.y
      value: 373.43192
      objectReference: {fileID: 0}
    - target: {fileID: 3377126160397093803, guid: 08eb30fd7f2748141b2a934a5277a6c2,
        type: 3}
      propertyPath: m_LocalPosition.z
      value: 609.85144
      objectReference: {fileID: 0}
    - target: {fileID: 3377126160397093803, guid: 08eb30fd7f2748141b2a934a5277a6c2,
        type: 3}
      propertyPath: m_LocalRotation.x
      value: 0.00000008146034
      objectReference: {fileID: 0}
    - target: {fileID: 3377126160397093803, guid: 08eb30fd7f2748141b2a934a5277a6c2,
        type: 3}
      propertyPath: m_LocalRotation.y
      value: -0
      objectReference: {fileID: 0}
    - target: {fileID: 3377126160397093803, guid: 08eb30fd7f2748141b2a934a5277a6c2,
        type: 3}
      propertyPath: m_LocalRotation.z
      value: -0
      objectReference: {fileID: 0}
    - target: {fileID: 3377126160397093803, guid: 08eb30fd7f2748141b2a934a5277a6c2,
        type: 3}
      propertyPath: m_LocalRotation.w
      value: 1
      objectReference: {fileID: 0}
    - target: {fileID: 3377126160397093803, guid: 08eb30fd7f2748141b2a934a5277a6c2,
        type: 3}
      propertyPath: m_RootOrder
      value: 3
      objectReference: {fileID: 0}
    - target: {fileID: 3377126160397093803, guid: 08eb30fd7f2748141b2a934a5277a6c2,
        type: 3}
      propertyPath: m_LocalEulerAnglesHint.x
      value: 0
      objectReference: {fileID: 0}
    - target: {fileID: 3377126160397093803, guid: 08eb30fd7f2748141b2a934a5277a6c2,
        type: 3}
      propertyPath: m_LocalEulerAnglesHint.y
      value: 0
      objectReference: {fileID: 0}
    - target: {fileID: 3377126160397093803, guid: 08eb30fd7f2748141b2a934a5277a6c2,
        type: 3}
      propertyPath: m_LocalEulerAnglesHint.z
      value: 0
      objectReference: {fileID: 0}
    m_RemovedComponents: []
  m_SourcePrefab: {fileID: 100100000, guid: 08eb30fd7f2748141b2a934a5277a6c2, type: 3}
--- !u!1001 &1478081073
PrefabInstance:
  m_ObjectHideFlags: 0
  serializedVersion: 2
  m_Modification:
    m_TransformParent: {fileID: 0}
    m_Modifications:
    - target: {fileID: 8233897184795131409, guid: 0f52fd0aa0f000a41b02ac991d2ebe62,
        type: 3}
      propertyPath: m_Name
      value: EmboscadaPrincipioBandidos (1)
      objectReference: {fileID: 0}
    - target: {fileID: 8233897184795131410, guid: 0f52fd0aa0f000a41b02ac991d2ebe62,
        type: 3}
      propertyPath: m_LocalPosition.x
      value: -431.0536
      objectReference: {fileID: 0}
    - target: {fileID: 8233897184795131410, guid: 0f52fd0aa0f000a41b02ac991d2ebe62,
        type: 3}
      propertyPath: m_LocalPosition.y
      value: 443
      objectReference: {fileID: 0}
    - target: {fileID: 8233897184795131410, guid: 0f52fd0aa0f000a41b02ac991d2ebe62,
        type: 3}
      propertyPath: m_LocalPosition.z
      value: 202
      objectReference: {fileID: 0}
    - target: {fileID: 8233897184795131410, guid: 0f52fd0aa0f000a41b02ac991d2ebe62,
        type: 3}
      propertyPath: m_LocalRotation.x
      value: 0
      objectReference: {fileID: 0}
    - target: {fileID: 8233897184795131410, guid: 0f52fd0aa0f000a41b02ac991d2ebe62,
        type: 3}
      propertyPath: m_LocalRotation.y
      value: 0
      objectReference: {fileID: 0}
    - target: {fileID: 8233897184795131410, guid: 0f52fd0aa0f000a41b02ac991d2ebe62,
        type: 3}
      propertyPath: m_LocalRotation.z
      value: 0
      objectReference: {fileID: 0}
    - target: {fileID: 8233897184795131410, guid: 0f52fd0aa0f000a41b02ac991d2ebe62,
        type: 3}
      propertyPath: m_LocalRotation.w
      value: 1
      objectReference: {fileID: 0}
    - target: {fileID: 8233897184795131410, guid: 0f52fd0aa0f000a41b02ac991d2ebe62,
        type: 3}
      propertyPath: m_RootOrder
      value: 1
      objectReference: {fileID: 0}
    - target: {fileID: 8233897184795131410, guid: 0f52fd0aa0f000a41b02ac991d2ebe62,
        type: 3}
      propertyPath: m_LocalEulerAnglesHint.x
      value: 0
      objectReference: {fileID: 0}
    - target: {fileID: 8233897184795131410, guid: 0f52fd0aa0f000a41b02ac991d2ebe62,
        type: 3}
      propertyPath: m_LocalEulerAnglesHint.y
      value: 0
      objectReference: {fileID: 0}
    - target: {fileID: 8233897184795131410, guid: 0f52fd0aa0f000a41b02ac991d2ebe62,
        type: 3}
      propertyPath: m_LocalEulerAnglesHint.z
      value: 0
      objectReference: {fileID: 0}
    - target: {fileID: 8478026590741386472, guid: 0f52fd0aa0f000a41b02ac991d2ebe62,
        type: 3}
      propertyPath: m_AnchorMax.x
      value: 0
      objectReference: {fileID: 0}
    - target: {fileID: 8478026590741386472, guid: 0f52fd0aa0f000a41b02ac991d2ebe62,
        type: 3}
      propertyPath: m_AnchorMax.y
      value: 0
      objectReference: {fileID: 0}
    - target: {fileID: 8478026591225447427, guid: 0f52fd0aa0f000a41b02ac991d2ebe62,
        type: 3}
      propertyPath: m_AnchorMax.x
      value: 0
      objectReference: {fileID: 0}
    - target: {fileID: 8478026591225447427, guid: 0f52fd0aa0f000a41b02ac991d2ebe62,
        type: 3}
      propertyPath: m_AnchorMax.y
      value: 0
      objectReference: {fileID: 0}
    - target: {fileID: 8478026591692794223, guid: 0f52fd0aa0f000a41b02ac991d2ebe62,
        type: 3}
      propertyPath: m_AnchorMax.x
      value: 0
      objectReference: {fileID: 0}
    - target: {fileID: 8478026591692794223, guid: 0f52fd0aa0f000a41b02ac991d2ebe62,
        type: 3}
      propertyPath: m_AnchorMax.y
      value: 0
      objectReference: {fileID: 0}
    - target: {fileID: 8478026592113517812, guid: 0f52fd0aa0f000a41b02ac991d2ebe62,
        type: 3}
      propertyPath: m_AnchorMax.x
      value: 0
      objectReference: {fileID: 0}
    - target: {fileID: 8478026592113517812, guid: 0f52fd0aa0f000a41b02ac991d2ebe62,
        type: 3}
      propertyPath: m_AnchorMax.y
      value: 0
      objectReference: {fileID: 0}
    - target: {fileID: 8478026592296448252, guid: 0f52fd0aa0f000a41b02ac991d2ebe62,
        type: 3}
      propertyPath: m_AnchorMax.x
      value: 0
      objectReference: {fileID: 0}
    - target: {fileID: 8478026592296448252, guid: 0f52fd0aa0f000a41b02ac991d2ebe62,
        type: 3}
      propertyPath: m_AnchorMax.y
      value: 0
      objectReference: {fileID: 0}
    m_RemovedComponents: []
  m_SourcePrefab: {fileID: 100100000, guid: 0f52fd0aa0f000a41b02ac991d2ebe62, type: 3}
--- !u!1 &1648126433
GameObject:
  m_ObjectHideFlags: 0
  m_CorrespondingSourceObject: {fileID: 0}
  m_PrefabInstance: {fileID: 0}
  m_PrefabAsset: {fileID: 0}
  serializedVersion: 6
  m_Component:
  - component: {fileID: 1648126436}
  - component: {fileID: 1648126435}
  - component: {fileID: 1648126434}
  m_Layer: 0
  m_Name: Main Camera
  m_TagString: MainCamera
  m_Icon: {fileID: 0}
  m_NavMeshLayer: 0
  m_StaticEditorFlags: 0
  m_IsActive: 1
--- !u!81 &1648126434
AudioListener:
  m_ObjectHideFlags: 0
  m_CorrespondingSourceObject: {fileID: 0}
  m_PrefabInstance: {fileID: 0}
  m_PrefabAsset: {fileID: 0}
  m_GameObject: {fileID: 1648126433}
  m_Enabled: 1
--- !u!20 &1648126435
Camera:
  m_ObjectHideFlags: 0
  m_CorrespondingSourceObject: {fileID: 0}
  m_PrefabInstance: {fileID: 0}
  m_PrefabAsset: {fileID: 0}
  m_GameObject: {fileID: 1648126433}
  m_Enabled: 1
  serializedVersion: 2
  m_ClearFlags: 1
  m_BackGroundColor: {r: 0.19215687, g: 0.3019608, b: 0.4745098, a: 0}
  m_projectionMatrixMode: 1
  m_SensorSize: {x: 36, y: 24}
  m_LensShift: {x: 0, y: 0}
  m_GateFitMode: 2
  m_FocalLength: 50
  m_NormalizedViewPortRect:
    serializedVersion: 2
    x: 0
    y: 0
    width: 1
    height: 1
  near clip plane: 0.3
  far clip plane: 1000
  field of view: 60
  orthographic: 0
  orthographic size: 5
  m_Depth: -1
  m_CullingMask:
    serializedVersion: 2
    m_Bits: 4294967295
  m_RenderingPath: -1
  m_TargetTexture: {fileID: 0}
  m_TargetDisplay: 0
  m_TargetEye: 3
  m_HDR: 1
  m_AllowMSAA: 1
  m_AllowDynamicResolution: 0
  m_ForceIntoRT: 0
  m_OcclusionCulling: 1
  m_StereoConvergence: 10
  m_StereoSeparation: 0.022
--- !u!4 &1648126436
Transform:
  m_ObjectHideFlags: 0
  m_CorrespondingSourceObject: {fileID: 0}
  m_PrefabInstance: {fileID: 0}
  m_PrefabAsset: {fileID: 0}
  m_GameObject: {fileID: 1648126433}
  m_LocalRotation: {x: 0, y: 0, z: 0, w: 1}
  m_LocalPosition: {x: 0, y: 1, z: -10}
  m_LocalScale: {x: 1, y: 1, z: 1}
  m_Children: []
  m_Father: {fileID: 0}
  m_RootOrder: 0
  m_LocalEulerAnglesHint: {x: 0, y: 0, z: 0}
