%YAML 1.1
%TAG !u! tag:unity3d.com,2011:
--- !u!114 &11400000
MonoBehaviour:
  m_ObjectHideFlags: 0
  m_CorrespondingSourceObject: {fileID: 0}
  m_PrefabInstance: {fileID: 0}
  m_PrefabAsset: {fileID: 0}
  m_GameObject: {fileID: 0}
  m_Enabled: 1
  m_EditorHideFlags: 0
  m_Script: {fileID: 11500000, guid: cbfceff6b738cf843bc359345e96ac33, type: 3}
  m_Name: Zone5
  m_EditorClassIdentifier: 
  ID: 5
  NameKey: ZONE_5
  ZoneTitlePrefab: {fileID: 2283422594411739510, guid: ffea3faad429b27499f4ce7ecce8f92e,
    type: 3}
