%YAML 1.1
%TAG !u! tag:unity3d.com,2011:
--- !u!114 &11400000
MonoBehaviour:
  m_ObjectHideFlags: 0
  m_CorrespondingSourceObject: {fileID: 0}
  m_PrefabInstance: {fileID: 0}
  m_PrefabAsset: {fileID: 0}
  m_GameObject: {fileID: 0}
  m_Enabled: 1
  m_EditorHideFlags: 0
  m_Script: {fileID: 11500000, guid: c09632e5c0c1c7e41923a2c2117ee1ac, type: 3}
  m_Name: ItemDB
  m_EditorClassIdentifier: 
  m_Objects:
  - {fileID: 11400000, guid: f7bb86f508572774387e640fce651a7f, type: 2}
  - {fileID: 11400000, guid: 1bcada112af964c4180f47c130c92025, type: 2}
  - {fileID: 11400000, guid: d1f7acf7822db3c41bb71d5e203ba3b1, type: 2}
  - {fileID: 11400000, guid: 80e712f7ab138274a92c81098ed186b6, type: 2}
  - {fileID: 11400000, guid: 6026c50360040084d855012c495e14e8, type: 2}
  - {fileID: 11400000, guid: 4798dbb514f639845b494894e7da1183, type: 2}
