%YAML 1.1
%TAG !u! tag:unity3d.com,2011:
--- !u!114 &11400000
MonoBehaviour:
  m_ObjectHideFlags: 0
  m_CorrespondingSourceObject: {fileID: 0}
  m_PrefabInstance: {fileID: 0}
  m_PrefabAsset: {fileID: 0}
  m_GameObject: {fileID: 0}
  m_Enabled: 1
  m_EditorHideFlags: 0
  m_Script: {fileID: 11500000, guid: 6b06da683c196b247a2b1568870fca84, type: 3}
  m_Name: QuestDB
  m_EditorClassIdentifier: 
  m_Objects:
  - {fileID: 11400000, guid: b14f90e2b300d944d80f24f1231ef3ea, type: 2}
  - {fileID: 11400000, guid: 6af3b44792506754798dba043cd01f49, type: 2}
  - {fileID: 11400000, guid: 2bc02c88cbc11e340b90a5bdd6520f86, type: 2}
  - {fileID: 11400000, guid: e84c0ca09f91c254c930970db0a94587, type: 2}
  - {fileID: 11400000, guid: baf225ea1d2c3aa4db3899c8266d815b, type: 2}
  - {fileID: 11400000, guid: 9bd6f605b966b804bbf45242212e2cf3, type: 2}
  - {fileID: 11400000, guid: 6923bcf4648d3944b9875c0fbdbd0c1a, type: 2}
  - {fileID: 11400000, guid: 53e9172a65d981f4588cd94a013da510, type: 2}
  - {fileID: 11400000, guid: cbe8b60b95c631b4a9841df4b8e6ff39, type: 2}
  - {fileID: 11400000, guid: ff7af51b65f5f5b419988d90e61842c5, type: 2}
  - {fileID: 11400000, guid: 2af50ba0f8332344098ab5bebcbca69b, type: 2}
  - {fileID: 11400000, guid: bbd92865117f4744ba7a4491ad77c413, type: 2}
  - {fileID: 11400000, guid: 51e6dd1a35be8884ca57403c5e05b780, type: 2}
  - {fileID: 11400000, guid: a83a18820f7bb0a478fde61ebb0ec38b, type: 2}
