%YAML 1.1
%TAG !u! tag:unity3d.com,2011:
--- !u!65 &157734886
BoxCollider:
  m_ObjectHideFlags: 0
  m_CorrespondingSourceObject: {fileID: 0}
  m_PrefabInstance: {fileID: 0}
  m_PrefabAsset: {fileID: 0}
  m_GameObject: {fileID: 4632499504675002922}
  m_Material: {fileID: 0}
  m_IsTrigger: 0
  m_Enabled: 1
  serializedVersion: 2
  m_Size: {x: 0.76199996, y: 0.76184744, z: 0.7605707}
  m_Center: {x: 0, y: 0, z: 0}
--- !u!1001 &4632499504674905226
PrefabInstance:
  m_ObjectHideFlags: 0
  serializedVersion: 2
  m_Modification:
    m_TransformParent: {fileID: 0}
    m_Modifications:
    - target: {fileID: 100000, guid: 776ce930a6f59bd4b9512887e9fe4983, type: 3}
      propertyPath: m_Name
      value: Caja
      objectReference: {fileID: 0}
    - target: {fileID: 100000, guid: 776ce930a6f59bd4b9512887e9fe4983, type: 3}
      propertyPath: m_Layer
      value: 9
      objectReference: {fileID: 0}
    - target: {fileID: 400000, guid: 776ce930a6f59bd4b9512887e9fe4983, type: 3}
      propertyPath: m_LocalPosition.x
      value: 193.463
      objectReference: {fileID: 0}
    - target: {fileID: 400000, guid: 776ce930a6f59bd4b9512887e9fe4983, type: 3}
      propertyPath: m_LocalPosition.y
      value: 0.38028535
      objectReference: {fileID: 0}
    - target: {fileID: 400000, guid: 776ce930a6f59bd4b9512887e9fe4983, type: 3}
      propertyPath: m_LocalPosition.z
      value: 40.494846
      objectReference: {fileID: 0}
    - target: {fileID: 400000, guid: 776ce930a6f59bd4b9512887e9fe4983, type: 3}
      propertyPath: m_LocalRotation.x
      value: -0.7071068
      objectReference: {fileID: 0}
    - target: {fileID: 400000, guid: 776ce930a6f59bd4b9512887e9fe4983, type: 3}
      propertyPath: m_LocalRotation.y
      value: 0
      objectReference: {fileID: 0}
    - target: {fileID: 400000, guid: 776ce930a6f59bd4b9512887e9fe4983, type: 3}
      propertyPath: m_LocalRotation.z
      value: -0
      objectReference: {fileID: 0}
    - target: {fileID: 400000, guid: 776ce930a6f59bd4b9512887e9fe4983, type: 3}
      propertyPath: m_LocalRotation.w
      value: 0.7071068
      objectReference: {fileID: 0}
    - target: {fileID: 400000, guid: 776ce930a6f59bd4b9512887e9fe4983, type: 3}
      propertyPath: m_RootOrder
      value: 0
      objectReference: {fileID: 0}
    - target: {fileID: 400000, guid: 776ce930a6f59bd4b9512887e9fe4983, type: 3}
      propertyPath: m_LocalEulerAnglesHint.x
      value: 0
      objectReference: {fileID: 0}
    - target: {fileID: 400000, guid: 776ce930a6f59bd4b9512887e9fe4983, type: 3}
      propertyPath: m_LocalEulerAnglesHint.y
      value: 0
      objectReference: {fileID: 0}
    - target: {fileID: 400000, guid: 776ce930a6f59bd4b9512887e9fe4983, type: 3}
      propertyPath: m_LocalEulerAnglesHint.z
      value: 0
      objectReference: {fileID: 0}
    m_RemovedComponents: []
  m_SourcePrefab: {fileID: 100100000, guid: 776ce930a6f59bd4b9512887e9fe4983, type: 3}
--- !u!1 &4632499504675002922 stripped
GameObject:
  m_CorrespondingSourceObject: {fileID: 100000, guid: 776ce930a6f59bd4b9512887e9fe4983,
    type: 3}
  m_PrefabInstance: {fileID: 4632499504674905226}
  m_PrefabAsset: {fileID: 0}
