%YAML 1.1
%TAG !u! tag:unity3d.com,2011:
--- !u!1 &5199606575099972691
GameObject:
  m_ObjectHideFlags: 0
  m_CorrespondingSourceObject: {fileID: 0}
  m_PrefabInstance: {fileID: 0}
  m_PrefabAsset: {fileID: 0}
  serializedVersion: 6
  m_Component:
  - component: {fileID: 5199606575099613299}
  - component: {fileID: 5199606575100940371}
  - component: {fileID: 5199606575101907603}
  m_Layer: 0
  m_Name: PuestoDecorativo
  m_TagString: Untagged
  m_Icon: {fileID: 0}
  m_NavMeshLayer: 0
  m_StaticEditorFlags: 0
  m_IsActive: 1
--- !u!4 &5199606575099613299
Transform:
  m_ObjectHideFlags: 0
  m_CorrespondingSourceObject: {fileID: 0}
  m_PrefabInstance: {fileID: 0}
  m_PrefabAsset: {fileID: 0}
  m_GameObject: {fileID: 5199606575099972691}
  m_LocalRotation: {x: -0.5104323, y: -0.0036185037, z: -0.0070160297, w: 0.8598817}
  m_LocalPosition: {x: 65.97, y: 0.11, z: -319.61}
  m_LocalScale: {x: 3.833702, y: 2.810505, z: 1.7266237}
  m_Children: []
  m_Father: {fileID: 0}
  m_RootOrder: 0
  m_LocalEulerAnglesHint: {x: -61.387, y: 0.112, z: -1.0020001}
--- !u!33 &5199606575100940371
MeshFilter:
  m_ObjectHideFlags: 0
  m_CorrespondingSourceObject: {fileID: 0}
  m_PrefabInstance: {fileID: 0}
  m_PrefabAsset: {fileID: 0}
  m_GameObject: {fileID: 5199606575099972691}
  m_Mesh: {fileID: 4300000, guid: 3640c888187d72f40b48bbc7a2b8de45, type: 3}
--- !u!23 &5199606575101907603
MeshRenderer:
  m_ObjectHideFlags: 0
  m_CorrespondingSourceObject: {fileID: 0}
  m_PrefabInstance: {fileID: 0}
  m_PrefabAsset: {fileID: 0}
  m_GameObject: {fileID: 5199606575099972691}
  m_Enabled: 1
  m_CastShadows: 1
  m_ReceiveShadows: 1
  m_DynamicOccludee: 1
  m_MotionVectors: 1
  m_LightProbeUsage: 1
  m_ReflectionProbeUsage: 1
  m_RenderingLayerMask: 1
  m_RendererPriority: 0
  m_Materials:
  - {fileID: 2100000, guid: 6cae7313b00d4de4e829f866a197c0f7, type: 2}
  - {fileID: 2100000, guid: 6cae7313b00d4de4e829f866a197c0f7, type: 2}
  - {fileID: 2100000, guid: 6cae7313b00d4de4e829f866a197c0f7, type: 2}
  - {fileID: 2100000, guid: 6cae7313b00d4de4e829f866a197c0f7, type: 2}
  m_StaticBatchInfo:
    firstSubMesh: 0
    subMeshCount: 0
  m_StaticBatchRoot: {fileID: 0}
  m_ProbeAnchor: {fileID: 0}
  m_LightProbeVolumeOverride: {fileID: 0}
  m_ScaleInLightmap: 1
  m_PreserveUVs: 0
  m_IgnoreNormalsForChartDetection: 0
  m_ImportantGI: 0
  m_StitchLightmapSeams: 0
  m_SelectedEditorRenderState: 3
  m_MinimumChartSize: 4
  m_AutoUVMaxDistance: 0.5
  m_AutoUVMaxAngle: 89
  m_LightmapParameters: {fileID: 0}
  m_SortingLayerID: 0
  m_SortingLayer: 0
  m_SortingOrder: 0
